EESchema Schematic File Version 4
LIBS:neuroestimulador-cache
EELAYER 26 0
EELAYER END
$Descr User 9843 15354
encoding utf-8
Sheet 1 1
Title "Estimulador por pulsos de corrente"
Date "2019-08-09"
Rev "1"
Comp "CTA - UFRGS"
Comment1 "Diagrama esquemático do estimulador por pulsos de corrente"
Comment2 "Autor: Luís Eduardo Estradioto"
Comment3 ""
Comment4 ""
$EndDescr
$Comp
L 4xxx:40106 U1
U 1 1 5D34735E
P 2400 3250
F 0 "U1" H 2400 3567 50  0000 C CNN
F 1 "40106" H 2400 3476 50  0000 C CNN
F 2 "Package_DIP:DIP-14_W7.62mm_Socket_LongPads" H 2400 3250 50  0001 C CNN
F 3 "http://www.nxp.com/documents/data_sheet/HEF40106B.pdf" H 2400 3250 50  0001 C CNN
	1    2400 3250
	1    0    0    -1  
$EndComp
$Comp
L 4xxx:40106 U1
U 2 1 5D347483
P 3150 3250
F 0 "U1" H 3150 3567 50  0000 C CNN
F 1 "40106" H 3150 3476 50  0000 C CNN
F 2 "Package_DIP:DIP-14_W7.62mm_Socket_LongPads" H 3150 3250 50  0001 C CNN
F 3 "http://www.nxp.com/documents/data_sheet/HEF40106B.pdf" H 3150 3250 50  0001 C CNN
	2    3150 3250
	1    0    0    -1  
$EndComp
$Comp
L 4xxx:40106 U1
U 3 1 5D3474E1
P 3900 3250
F 0 "U1" H 3900 3567 50  0000 C CNN
F 1 "40106" H 3900 3476 50  0000 C CNN
F 2 "Package_DIP:DIP-14_W7.62mm_Socket_LongPads" H 3900 3250 50  0001 C CNN
F 3 "http://www.nxp.com/documents/data_sheet/HEF40106B.pdf" H 3900 3250 50  0001 C CNN
	3    3900 3250
	1    0    0    -1  
$EndComp
$Comp
L 4xxx:40106 U1
U 4 1 5D347556
P 4650 3250
F 0 "U1" H 4650 3567 50  0000 C CNN
F 1 "40106" H 4650 3476 50  0000 C CNN
F 2 "Package_DIP:DIP-14_W7.62mm_Socket_LongPads" H 4650 3250 50  0001 C CNN
F 3 "http://www.nxp.com/documents/data_sheet/HEF40106B.pdf" H 4650 3250 50  0001 C CNN
	4    4650 3250
	1    0    0    -1  
$EndComp
$Comp
L 4xxx:40106 U1
U 5 1 5D3475B0
P 3150 2200
F 0 "U1" H 3150 2517 50  0000 C CNN
F 1 "40106" H 3150 2426 50  0000 C CNN
F 2 "Package_DIP:DIP-14_W7.62mm_Socket_LongPads" H 3150 2200 50  0001 C CNN
F 3 "http://www.nxp.com/documents/data_sheet/HEF40106B.pdf" H 3150 2200 50  0001 C CNN
	5    3150 2200
	1    0    0    -1  
$EndComp
$Comp
L 4xxx:40106 U1
U 6 1 5D347623
P 2400 2200
F 0 "U1" H 2400 2517 50  0000 C CNN
F 1 "40106" H 2400 2426 50  0000 C CNN
F 2 "Package_DIP:DIP-14_W7.62mm_Socket_LongPads" H 2400 2200 50  0001 C CNN
F 3 "http://www.nxp.com/documents/data_sheet/HEF40106B.pdf" H 2400 2200 50  0001 C CNN
	6    2400 2200
	1    0    0    -1  
$EndComp
$Comp
L 4xxx:40106 U1
U 7 1 5D347698
P 6450 1650
F 0 "U1" H 6680 1696 50  0000 L CNN
F 1 "40106" H 6680 1605 50  0000 L CNN
F 2 "Package_DIP:DIP-14_W7.62mm_Socket_LongPads" H 6450 1650 50  0001 C CNN
F 3 "http://www.nxp.com/documents/data_sheet/HEF40106B.pdf" H 6450 1650 50  0001 C CNN
	7    6450 1650
	1    0    0    -1  
$EndComp
Wire Wire Line
	2700 2200 2850 2200
Wire Wire Line
	2700 3250 2850 3250
Wire Wire Line
	3450 3250 3600 3250
Wire Wire Line
	4200 3250 4350 3250
$Comp
L power:+5V #PWR0101
U 1 1 5D347A07
P 6450 950
F 0 "#PWR0101" H 6450 800 50  0001 C CNN
F 1 "+5V" H 6465 1123 50  0000 C CNN
F 2 "" H 6450 950 50  0001 C CNN
F 3 "" H 6450 950 50  0001 C CNN
	1    6450 950 
	1    0    0    -1  
$EndComp
$Comp
L Device:C_Small C1
U 1 1 5D347B17
P 6850 1200
F 0 "C1" H 6942 1246 50  0000 L CNN
F 1 "100nF" H 6942 1155 50  0000 L CNN
F 2 "Capacitor_THT:C_Rect_L7.0mm_W2.5mm_P5.00mm" H 6850 1200 50  0001 C CNN
F 3 "~" H 6850 1200 50  0001 C CNN
	1    6850 1200
	1    0    0    -1  
$EndComp
Wire Wire Line
	6450 950  6450 1100
Wire Wire Line
	6850 1100 6450 1100
Connection ~ 6450 1100
Wire Wire Line
	6450 1100 6450 1150
$Comp
L power:GND #PWR0102
U 1 1 5D347BD8
P 6850 1300
F 0 "#PWR0102" H 6850 1050 50  0001 C CNN
F 1 "GND" H 6855 1127 50  0000 C CNN
F 2 "" H 6850 1300 50  0001 C CNN
F 3 "" H 6850 1300 50  0001 C CNN
	1    6850 1300
	1    0    0    -1  
$EndComp
$Comp
L power:GND #PWR0103
U 1 1 5D347C5A
P 6450 2150
F 0 "#PWR0103" H 6450 1900 50  0001 C CNN
F 1 "GND" H 6455 1977 50  0000 C CNN
F 2 "" H 6450 2150 50  0001 C CNN
F 3 "" H 6450 2150 50  0001 C CNN
	1    6450 2150
	1    0    0    -1  
$EndComp
$Comp
L 4xxx:40106 U2
U 1 1 5D347F14
P 4650 2200
F 0 "U2" H 4650 2517 50  0000 C CNN
F 1 "40106" H 4650 2426 50  0000 C CNN
F 2 "Package_DIP:DIP-14_W7.62mm_Socket_LongPads" H 4650 2200 50  0001 C CNN
F 3 "http://www.nxp.com/documents/data_sheet/HEF40106B.pdf" H 4650 2200 50  0001 C CNN
	1    4650 2200
	1    0    0    -1  
$EndComp
$Comp
L 4xxx:40106 U2
U 2 1 5D347F8B
P 5500 2200
F 0 "U2" H 5500 2517 50  0000 C CNN
F 1 "40106" H 5500 2426 50  0000 C CNN
F 2 "Package_DIP:DIP-14_W7.62mm_Socket_LongPads" H 5500 2200 50  0001 C CNN
F 3 "http://www.nxp.com/documents/data_sheet/HEF40106B.pdf" H 5500 2200 50  0001 C CNN
	2    5500 2200
	1    0    0    -1  
$EndComp
Wire Wire Line
	4950 2200 5200 2200
$Comp
L 4xxx:40106 U2
U 7 1 5D348111
P 7400 1550
F 0 "U2" H 7630 1596 50  0000 L CNN
F 1 "40106" H 7630 1505 50  0000 L CNN
F 2 "Package_DIP:DIP-14_W7.62mm_Socket_LongPads" H 7400 1550 50  0001 C CNN
F 3 "http://www.nxp.com/documents/data_sheet/HEF40106B.pdf" H 7400 1550 50  0001 C CNN
	7    7400 1550
	1    0    0    -1  
$EndComp
$Comp
L power:GND #PWR0104
U 1 1 5D348274
P 7800 1050
F 0 "#PWR0104" H 7800 800 50  0001 C CNN
F 1 "GND" H 7805 877 50  0000 C CNN
F 2 "" H 7800 1050 50  0001 C CNN
F 3 "" H 7800 1050 50  0001 C CNN
	1    7800 1050
	1    0    0    -1  
$EndComp
$Comp
L power:-5V #PWR0105
U 1 1 5D3482BA
P 7400 2250
F 0 "#PWR0105" H 7400 2350 50  0001 C CNN
F 1 "-5V" H 7415 2423 50  0000 C CNN
F 2 "" H 7400 2250 50  0001 C CNN
F 3 "" H 7400 2250 50  0001 C CNN
	1    7400 2250
	-1   0    0    1   
$EndComp
Wire Wire Line
	7400 2050 7400 2100
Wire Wire Line
	7400 1050 7400 950 
Wire Wire Line
	7400 950  7800 950 
Wire Wire Line
	7800 950  7800 1050
$Comp
L Device:C_Small C2
U 1 1 5D348553
P 7800 2200
F 0 "C2" H 7892 2246 50  0000 L CNN
F 1 "100nF" H 7892 2155 50  0000 L CNN
F 2 "Capacitor_THT:C_Rect_L7.0mm_W2.5mm_P5.00mm" H 7800 2200 50  0001 C CNN
F 3 "~" H 7800 2200 50  0001 C CNN
	1    7800 2200
	1    0    0    -1  
$EndComp
$Comp
L power:GND #PWR0106
U 1 1 5D34855B
P 7800 2300
F 0 "#PWR0106" H 7800 2050 50  0001 C CNN
F 1 "GND" H 7805 2127 50  0000 C CNN
F 2 "" H 7800 2300 50  0001 C CNN
F 3 "" H 7800 2300 50  0001 C CNN
	1    7800 2300
	1    0    0    -1  
$EndComp
Wire Wire Line
	7800 2100 7400 2100
Connection ~ 7400 2100
Wire Wire Line
	7400 2100 7400 2250
$Comp
L Device:R_POT_TRIM RV1
U 1 1 5D348CCB
P 3750 1850
F 0 "RV1" H 3681 1804 50  0000 R CNN
F 1 "2k" H 3681 1895 50  0000 R CNN
F 2 "Potentiometer_THT:Potentiometer_Bourns_3296W_Vertical" H 3750 1850 50  0001 C CNN
F 3 "~" H 3750 1850 50  0001 C CNN
	1    3750 1850
	-1   0    0    1   
$EndComp
$Comp
L Device:R R5
U 1 1 5D348D8A
P 3750 1500
F 0 "R5" H 3820 1546 50  0000 L CNN
F 1 "2k7" H 3820 1455 50  0000 L CNN
F 2 "Resistor_THT:R_Axial_DIN0207_L6.3mm_D2.5mm_P7.62mm_Horizontal" V 3680 1500 50  0001 C CNN
F 3 "~" H 3750 1500 50  0001 C CNN
	1    3750 1500
	1    0    0    -1  
$EndComp
$Comp
L Device:R R7
U 1 1 5D348DDE
P 4200 2400
F 0 "R7" H 4270 2446 50  0000 L CNN
F 1 "680" H 4270 2355 50  0000 L CNN
F 2 "Resistor_THT:R_Axial_DIN0207_L6.3mm_D2.5mm_P7.62mm_Horizontal" V 4130 2400 50  0001 C CNN
F 3 "~" H 4200 2400 50  0001 C CNN
	1    4200 2400
	1    0    0    -1  
$EndComp
$Comp
L Device:R R6
U 1 1 5D348E36
P 3750 1150
F 0 "R6" H 3820 1196 50  0000 L CNN
F 1 "390" H 3820 1105 50  0000 L CNN
F 2 "Resistor_THT:R_Axial_DIN0207_L6.3mm_D2.5mm_P7.62mm_Horizontal" V 3680 1150 50  0001 C CNN
F 3 "~" H 3750 1150 50  0001 C CNN
	1    3750 1150
	1    0    0    -1  
$EndComp
Wire Wire Line
	4350 2200 4200 2200
Wire Wire Line
	4200 2200 4200 2250
Wire Wire Line
	3750 2000 3750 2200
Wire Wire Line
	3750 2200 3550 2200
Wire Wire Line
	3750 1650 3750 1700
Wire Wire Line
	3750 1300 3750 1350
$Comp
L 2N2369:2N2369 T1
U 1 1 5D3497FF
P 4100 1300
F 0 "T1" H 4241 1254 50  0000 L CNN
F 1 "2N2369" H 4241 1345 50  0000 L CNN
F 2 "Package_TO_SOT_THT:TO-18-3" H 4100 1300 50  0001 L BNN
F 3 "TO-18 Multicomp" H 4100 1300 50  0001 L BNN
F 4 "None" H 4100 1300 50  0001 L BNN "Campo4"
F 5 "Unavailable" H 4100 1300 50  0001 L BNN "Campo5"
F 6 "; Transistor Polarity: NPN; Collector Emitter Voltage, V_br_ceo: 15V; Continuous Collector Current, Ic: 0.2A; Collect..." H 4100 1300 50  0001 L BNN "Campo6"
F 7 "2N2369" H 4100 1300 50  0001 L BNN "Campo7"
F 8 "ON Semiconductor" H 4100 1300 50  0001 L BNN "Campo8"
	1    4100 1300
	1    0    0    1   
$EndComp
Wire Wire Line
	4000 1300 3750 1300
Connection ~ 3750 1300
Wire Wire Line
	3750 1000 3750 900 
Wire Wire Line
	3750 900  4000 900 
Wire Wire Line
	4200 900  4200 1100
Wire Wire Line
	4200 1500 4200 2200
Connection ~ 4200 2200
$Comp
L power:-5V #PWR0107
U 1 1 5D34A3BA
P 4000 900
F 0 "#PWR0107" H 4000 1000 50  0001 C CNN
F 1 "-5V" H 4015 1073 50  0000 C CNN
F 2 "" H 4000 900 50  0001 C CNN
F 3 "" H 4000 900 50  0001 C CNN
	1    4000 900 
	1    0    0    -1  
$EndComp
Connection ~ 4000 900 
Wire Wire Line
	4000 900  4200 900 
$Comp
L power:GND #PWR0108
U 1 1 5D34A407
P 4200 2550
F 0 "#PWR0108" H 4200 2300 50  0001 C CNN
F 1 "GND" H 4205 2377 50  0000 C CNN
F 2 "" H 4200 2550 50  0001 C CNN
F 3 "" H 4200 2550 50  0001 C CNN
	1    4200 2550
	1    0    0    -1  
$EndComp
$Comp
L Device:R R1
U 1 1 5D34AB29
P 1600 2200
F 0 "R1" V 1393 2200 50  0000 C CNN
F 1 "100" V 1484 2200 50  0000 C CNN
F 2 "Resistor_THT:R_Axial_DIN0207_L6.3mm_D2.5mm_P7.62mm_Horizontal" V 1530 2200 50  0001 C CNN
F 3 "~" H 1600 2200 50  0001 C CNN
	1    1600 2200
	0    1    1    0   
$EndComp
$Comp
L Device:R R2
U 1 1 5D34ABF8
P 1900 2450
F 0 "R2" H 1830 2404 50  0000 R CNN
F 1 "1k" H 1830 2495 50  0000 R CNN
F 2 "Resistor_THT:R_Axial_DIN0207_L6.3mm_D2.5mm_P7.62mm_Horizontal" V 1830 2450 50  0001 C CNN
F 3 "~" H 1900 2450 50  0001 C CNN
	1    1900 2450
	-1   0    0    1   
$EndComp
Wire Wire Line
	1750 2200 1900 2200
Wire Wire Line
	1900 2300 1900 2200
Connection ~ 1900 2200
Wire Wire Line
	1900 2200 2100 2200
$Comp
L power:GND #PWR0109
U 1 1 5D34B2A0
P 1900 2600
F 0 "#PWR0109" H 1900 2350 50  0001 C CNN
F 1 "GND" H 1905 2427 50  0000 C CNN
F 2 "" H 1900 2600 50  0001 C CNN
F 3 "" H 1900 2600 50  0001 C CNN
	1    1900 2600
	1    0    0    -1  
$EndComp
$Comp
L Device:R R3
U 1 1 5D34B421
P 1600 3250
F 0 "R3" V 1393 3250 50  0000 C CNN
F 1 "100" V 1484 3250 50  0000 C CNN
F 2 "Resistor_THT:R_Axial_DIN0207_L6.3mm_D2.5mm_P7.62mm_Horizontal" V 1530 3250 50  0001 C CNN
F 3 "~" H 1600 3250 50  0001 C CNN
	1    1600 3250
	0    1    1    0   
$EndComp
$Comp
L Device:R R4
U 1 1 5D34B428
P 1900 3500
F 0 "R4" H 1830 3454 50  0000 R CNN
F 1 "1k" H 1830 3545 50  0000 R CNN
F 2 "Resistor_THT:R_Axial_DIN0207_L6.3mm_D2.5mm_P7.62mm_Horizontal" V 1830 3500 50  0001 C CNN
F 3 "~" H 1900 3500 50  0001 C CNN
	1    1900 3500
	-1   0    0    1   
$EndComp
Wire Wire Line
	1750 3250 1900 3250
Wire Wire Line
	1900 3350 1900 3250
Connection ~ 1900 3250
Wire Wire Line
	1900 3250 2100 3250
$Comp
L power:GND #PWR0110
U 1 1 5D34B433
P 1900 3650
F 0 "#PWR0110" H 1900 3400 50  0001 C CNN
F 1 "GND" H 1905 3477 50  0000 C CNN
F 2 "" H 1900 3650 50  0001 C CNN
F 3 "" H 1900 3650 50  0001 C CNN
	1    1900 3650
	1    0    0    -1  
$EndComp
$Comp
L Connector_Generic:Conn_01x03 J1
U 1 1 5D34C79C
P 850 2700
F 0 "J1" H 770 2375 50  0000 C CNN
F 1 "In_Arduino" H 770 2466 50  0000 C CNN
F 2 "Connector_PinHeader_2.54mm:PinHeader_1x03_P2.54mm_Vertical" H 850 2700 50  0001 C CNN
F 3 "~" H 850 2700 50  0001 C CNN
	1    850  2700
	-1   0    0    1   
$EndComp
Wire Wire Line
	1050 2700 1350 2700
Wire Wire Line
	1350 2700 1350 3250
Wire Wire Line
	1350 3250 1450 3250
Wire Wire Line
	1350 2600 1350 2200
Wire Wire Line
	1350 2200 1450 2200
Wire Wire Line
	1050 2600 1350 2600
$Comp
L power:GND #PWR0111
U 1 1 5D34E9A2
P 1150 2950
F 0 "#PWR0111" H 1150 2700 50  0001 C CNN
F 1 "GND" H 1155 2777 50  0000 C CNN
F 2 "" H 1150 2950 50  0001 C CNN
F 3 "" H 1150 2950 50  0001 C CNN
	1    1150 2950
	1    0    0    -1  
$EndComp
Wire Wire Line
	1150 2950 1150 2800
Wire Wire Line
	1150 2800 1050 2800
$Comp
L Device:R R8
U 1 1 5D34FA5D
P 5950 2450
F 0 "R8" H 6020 2496 50  0000 L CNN
F 1 "2k7-1%" H 6020 2405 50  0000 L CNN
F 2 "Resistor_THT:R_Axial_DIN0207_L6.3mm_D2.5mm_P7.62mm_Horizontal" V 5880 2450 50  0001 C CNN
F 3 "~" H 5950 2450 50  0001 C CNN
	1    5950 2450
	1    0    0    -1  
$EndComp
$Comp
L Device:R R9
U 1 1 5D3501D5
P 5950 2950
F 0 "R9" H 6020 2996 50  0000 L CNN
F 1 "2k7-1%" H 6020 2905 50  0000 L CNN
F 2 "Resistor_THT:R_Axial_DIN0207_L6.3mm_D2.5mm_P7.62mm_Horizontal" V 5880 2950 50  0001 C CNN
F 3 "~" H 5950 2950 50  0001 C CNN
	1    5950 2950
	1    0    0    -1  
$EndComp
Wire Wire Line
	5800 2200 5950 2200
Wire Wire Line
	5950 2200 5950 2300
Wire Wire Line
	4950 3250 5950 3250
Wire Wire Line
	5950 3100 5950 3250
Wire Wire Line
	5950 2600 5950 2700
Wire Wire Line
	3600 1850 3550 1850
Wire Wire Line
	3550 1850 3550 2200
Connection ~ 3550 2200
Wire Wire Line
	3550 2200 3450 2200
$Comp
L Device:R_POT_TRIM RV2
U 1 1 5D355130
P 6550 2900
F 0 "RV2" H 6480 2946 50  0000 R CNN
F 1 "1k" H 6480 2855 50  0000 R CNN
F 2 "Connector_Wire:SolderWirePad_1x03_P3.175mm_Drill1mm" H 6550 2900 50  0001 C CNN
F 3 "~" H 6550 2900 50  0001 C CNN
	1    6550 2900
	1    0    0    -1  
$EndComp
$Comp
L Device:R R10
U 1 1 5D358CEA
P 6550 3250
F 0 "R10" H 6620 3296 50  0000 L CNN
F 1 "100" H 6620 3205 50  0000 L CNN
F 2 "Resistor_THT:R_Axial_DIN0207_L6.3mm_D2.5mm_P7.62mm_Horizontal" V 6480 3250 50  0001 C CNN
F 3 "~" H 6550 3250 50  0001 C CNN
	1    6550 3250
	1    0    0    -1  
$EndComp
Wire Wire Line
	6550 2750 6550 2700
Wire Wire Line
	6550 2700 5950 2700
Connection ~ 5950 2700
Wire Wire Line
	5950 2700 5950 2800
Wire Wire Line
	6550 3050 6550 3100
$Comp
L power:GND #PWR0112
U 1 1 5D35B647
P 6550 3400
F 0 "#PWR0112" H 6550 3150 50  0001 C CNN
F 1 "GND" H 6555 3227 50  0000 C CNN
F 2 "" H 6550 3400 50  0001 C CNN
F 3 "" H 6550 3400 50  0001 C CNN
	1    6550 3400
	1    0    0    -1  
$EndComp
Text GLabel 6950 2900 2    118  Input ~ 0
Vi
Wire Wire Line
	6700 2900 6750 2900
Text Notes 2800 1050 2    118  ~ 0
Ajuste de pulsos\n
$Comp
L 4xxx:40106 U2
U 3 1 5D3B769D
P 8600 1950
F 0 "U2" H 8600 2267 50  0000 C CNN
F 1 "40106" H 8600 2176 50  0000 C CNN
F 2 "" H 8600 1950 50  0001 C CNN
F 3 "http://www.nxp.com/documents/data_sheet/HEF40106B.pdf" H 8600 1950 50  0001 C CNN
	3    8600 1950
	1    0    0    -1  
$EndComp
$Comp
L 4xxx:40106 U2
U 4 1 5D3B794E
P 8600 2450
F 0 "U2" H 8600 2767 50  0000 C CNN
F 1 "40106" H 8600 2676 50  0000 C CNN
F 2 "" H 8600 2450 50  0001 C CNN
F 3 "http://www.nxp.com/documents/data_sheet/HEF40106B.pdf" H 8600 2450 50  0001 C CNN
	4    8600 2450
	1    0    0    -1  
$EndComp
$Comp
L 4xxx:40106 U2
U 5 1 5D3B7A01
P 8600 2950
F 0 "U2" H 8600 3267 50  0000 C CNN
F 1 "40106" H 8600 3176 50  0000 C CNN
F 2 "" H 8600 2950 50  0001 C CNN
F 3 "http://www.nxp.com/documents/data_sheet/HEF40106B.pdf" H 8600 2950 50  0001 C CNN
	5    8600 2950
	1    0    0    -1  
$EndComp
$Comp
L 4xxx:40106 U2
U 6 1 5D3B7AA2
P 8600 3450
F 0 "U2" H 8600 3767 50  0000 C CNN
F 1 "40106" H 8600 3676 50  0000 C CNN
F 2 "" H 8600 3450 50  0001 C CNN
F 3 "http://www.nxp.com/documents/data_sheet/HEF40106B.pdf" H 8600 3450 50  0001 C CNN
	6    8600 3450
	1    0    0    -1  
$EndComp
Wire Wire Line
	8300 1950 8150 1950
Wire Wire Line
	8150 1950 8150 2450
Wire Wire Line
	8150 3450 8300 3450
Wire Wire Line
	8300 2950 8150 2950
Connection ~ 8150 2950
Wire Wire Line
	8150 2950 8150 3450
Wire Wire Line
	8300 2450 8150 2450
Connection ~ 8150 2450
Wire Wire Line
	8150 2450 8150 2950
$Comp
L power:GND #PWR0116
U 1 1 5D3BE48E
P 8150 3450
F 0 "#PWR0116" H 8150 3200 50  0001 C CNN
F 1 "GND" H 8155 3277 50  0000 C CNN
F 2 "" H 8150 3450 50  0001 C CNN
F 3 "" H 8150 3450 50  0001 C CNN
	1    8150 3450
	1    0    0    -1  
$EndComp
Connection ~ 8150 3450
$Comp
L Amplifier_Operational:OP07 U5
U 1 1 5D3BFAD7
P 1950 5950
F 0 "U5" H 2200 5900 50  0000 L CNN
F 1 "OP27" H 2150 5800 50  0000 L CNN
F 2 "Package_SO:SOIC-8_3.9x4.9mm_P1.27mm" H 2000 6000 50  0001 C CNN
F 3 "http://www.analog.com/media/en/technical-documentation/data-sheets/OP07.pdf" H 2000 6100 50  0001 C CNN
	1    1950 5950
	1    0    0    -1  
$EndComp
$Comp
L Device:R R11
U 1 1 5D3BFD86
P 1350 5850
F 0 "R11" V 1143 5850 50  0000 C CNN
F 1 "100" V 1234 5850 50  0000 C CNN
F 2 "Resistor_THT:R_Axial_DIN0207_L6.3mm_D2.5mm_P7.62mm_Horizontal" V 1280 5850 50  0001 C CNN
F 3 "~" H 1350 5850 50  0001 C CNN
	1    1350 5850
	0    1    1    0   
$EndComp
Wire Wire Line
	1500 5850 1650 5850
Wire Wire Line
	1650 6050 1600 6050
Wire Wire Line
	2250 5950 2400 5950
Text GLabel 1100 5850 0    118  Input ~ 0
Vi
Wire Wire Line
	1100 5850 1200 5850
Wire Wire Line
	1850 6250 1850 6300
$Comp
L Device:C_Small C8
U 1 1 5D3E1EE1
P 2250 6400
F 0 "C8" H 2342 6446 50  0000 L CNN
F 1 "100nF" H 2342 6355 50  0000 L CNN
F 2 "Capacitor_THT:C_Rect_L7.0mm_W2.5mm_P5.00mm" H 2250 6400 50  0001 C CNN
F 3 "~" H 2250 6400 50  0001 C CNN
	1    2250 6400
	1    0    0    -1  
$EndComp
$Comp
L power:GND #PWR0117
U 1 1 5D3E1EE8
P 2250 6500
F 0 "#PWR0117" H 2250 6250 50  0001 C CNN
F 1 "GND" H 2255 6327 50  0000 C CNN
F 2 "" H 2250 6500 50  0001 C CNN
F 3 "" H 2250 6500 50  0001 C CNN
	1    2250 6500
	1    0    0    -1  
$EndComp
Wire Wire Line
	2250 6300 1850 6300
Connection ~ 1850 6300
Wire Wire Line
	1850 6300 1850 6450
$Comp
L Device:R R12
U 1 1 5D3C4CC2
P 1900 6850
F 0 "R12" V 1800 6850 50  0000 C CNN
F 1 "2k7" V 1700 6850 50  0000 C CNN
F 2 "Resistor_THT:R_Axial_DIN0207_L6.3mm_D2.5mm_P7.62mm_Horizontal" V 1830 6850 50  0001 C CNN
F 3 "~" H 1900 6850 50  0001 C CNN
	1    1900 6850
	0    -1   -1   0   
$EndComp
Wire Wire Line
	1600 6850 1750 6850
Wire Wire Line
	1600 6050 1600 6850
Wire Wire Line
	2400 6850 2050 6850
Wire Wire Line
	2400 5950 2400 6850
$Comp
L Device:C_Small C7
U 1 1 5D3F865A
P 2250 5500
F 0 "C7" H 2342 5546 50  0000 L CNN
F 1 "100nF" H 2342 5455 50  0000 L CNN
F 2 "Capacitor_THT:C_Rect_L7.0mm_W2.5mm_P5.00mm" H 2250 5500 50  0001 C CNN
F 3 "~" H 2250 5500 50  0001 C CNN
	1    2250 5500
	1    0    0    -1  
$EndComp
Wire Wire Line
	1850 5250 1850 5400
Wire Wire Line
	2250 5400 1850 5400
Connection ~ 1850 5400
$Comp
L power:GND #PWR0118
U 1 1 5D3F8665
P 2250 5600
F 0 "#PWR0118" H 2250 5350 50  0001 C CNN
F 1 "GND" H 2255 5427 50  0000 C CNN
F 2 "" H 2250 5600 50  0001 C CNN
F 3 "" H 2250 5600 50  0001 C CNN
	1    2250 5600
	1    0    0    -1  
$EndComp
Wire Wire Line
	1850 5400 1850 5650
$Comp
L Device:R R13
U 1 1 5D4113DF
P 2800 5950
F 0 "R13" V 2700 5950 50  0000 C CNN
F 1 "2k7-1%" V 2600 5950 50  0000 C CNN
F 2 "Resistor_THT:R_Axial_DIN0207_L6.3mm_D2.5mm_P7.62mm_Horizontal" V 2730 5950 50  0001 C CNN
F 3 "~" H 2800 5950 50  0001 C CNN
	1    2800 5950
	0    -1   -1   0   
$EndComp
Wire Wire Line
	2400 5950 2650 5950
Connection ~ 2400 5950
$Comp
L Amplifier_Operational:OP07 U6
U 1 1 5D417D99
P 3600 5850
F 0 "U6" H 3941 5804 50  0000 L CNN
F 1 "OPA627" H 3941 5895 50  0000 L CNN
F 2 "Package_DIP:DIP-8_W7.62mm_Socket_LongPads" H 3650 5900 50  0001 C CNN
F 3 "http://www.analog.com/media/en/technical-documentation/data-sheets/OP07.pdf" H 3650 6000 50  0001 C CNN
	1    3600 5850
	1    0    0    1   
$EndComp
Wire Wire Line
	2950 5950 3150 5950
$Comp
L Device:R R14
U 1 1 5D429530
P 3000 5600
F 0 "R14" V 2900 5600 50  0000 C CNN
F 1 "2k7-1%" V 2800 5600 50  0000 C CNN
F 2 "Resistor_THT:R_Axial_DIN0207_L6.3mm_D2.5mm_P7.62mm_Horizontal" V 2930 5600 50  0001 C CNN
F 3 "~" H 3000 5600 50  0001 C CNN
	1    3000 5600
	0    -1   -1   0   
$EndComp
Wire Wire Line
	3150 5600 3250 5600
Wire Wire Line
	3250 5600 3250 5750
Wire Wire Line
	3250 5750 3300 5750
$Comp
L power:GND #PWR0119
U 1 1 5D434164
P 2700 5650
F 0 "#PWR0119" H 2700 5400 50  0001 C CNN
F 1 "GND" H 2705 5477 50  0000 C CNN
F 2 "" H 2700 5650 50  0001 C CNN
F 3 "" H 2700 5650 50  0001 C CNN
	1    2700 5650
	1    0    0    -1  
$EndComp
Wire Wire Line
	2700 5650 2700 5600
Wire Wire Line
	2700 5600 2850 5600
$Comp
L Device:R R15
U 1 1 5D43BB58
P 3650 4850
F 0 "R15" V 3850 4850 50  0000 C CNN
F 1 "2k7-1%" V 3750 4850 50  0000 C CNN
F 2 "Resistor_THT:R_Axial_DIN0207_L6.3mm_D2.5mm_P7.62mm_Horizontal" V 3580 4850 50  0001 C CNN
F 3 "~" H 3650 4850 50  0001 C CNN
	1    3650 4850
	0    -1   -1   0   
$EndComp
Wire Wire Line
	3250 5600 3250 4850
Connection ~ 3250 5600
Wire Wire Line
	3500 6150 3500 6200
$Comp
L Device:C_Small C10
U 1 1 5D4439C5
P 3900 6300
F 0 "C10" H 3992 6346 50  0000 L CNN
F 1 "100nF" H 3992 6255 50  0000 L CNN
F 2 "Capacitor_THT:C_Rect_L7.0mm_W2.5mm_P5.00mm" H 3900 6300 50  0001 C CNN
F 3 "~" H 3900 6300 50  0001 C CNN
	1    3900 6300
	1    0    0    -1  
$EndComp
$Comp
L power:GND #PWR0120
U 1 1 5D4439CC
P 3900 6400
F 0 "#PWR0120" H 3900 6150 50  0001 C CNN
F 1 "GND" H 3905 6227 50  0000 C CNN
F 2 "" H 3900 6400 50  0001 C CNN
F 3 "" H 3900 6400 50  0001 C CNN
	1    3900 6400
	1    0    0    -1  
$EndComp
Wire Wire Line
	3900 6200 3500 6200
Connection ~ 3500 6200
Wire Wire Line
	3500 6200 3500 6350
$Comp
L power:+15V #PWR0121
U 1 1 5D469187
P 1850 5250
F 0 "#PWR0121" H 1850 5100 50  0001 C CNN
F 1 "+15V" H 1865 5423 50  0000 C CNN
F 2 "" H 1850 5250 50  0001 C CNN
F 3 "" H 1850 5250 50  0001 C CNN
	1    1850 5250
	1    0    0    -1  
$EndComp
$Comp
L power:+15V #PWR0122
U 1 1 5D469219
P 3500 6350
F 0 "#PWR0122" H 3500 6200 50  0001 C CNN
F 1 "+15V" H 3515 6523 50  0000 C CNN
F 2 "" H 3500 6350 50  0001 C CNN
F 3 "" H 3500 6350 50  0001 C CNN
	1    3500 6350
	-1   0    0    1   
$EndComp
$Comp
L power:-15V #PWR0123
U 1 1 5D469330
P 1850 6450
F 0 "#PWR0123" H 1850 6550 50  0001 C CNN
F 1 "-15V" H 1865 6623 50  0000 C CNN
F 2 "" H 1850 6450 50  0001 C CNN
F 3 "" H 1850 6450 50  0001 C CNN
	1    1850 6450
	-1   0    0    1   
$EndComp
$Comp
L Device:C_Small C9
U 1 1 5D46957E
P 3900 5400
F 0 "C9" H 3992 5446 50  0000 L CNN
F 1 "100nF" H 3992 5355 50  0000 L CNN
F 2 "Capacitor_THT:C_Rect_L7.0mm_W2.5mm_P5.00mm" H 3900 5400 50  0001 C CNN
F 3 "~" H 3900 5400 50  0001 C CNN
	1    3900 5400
	1    0    0    -1  
$EndComp
Wire Wire Line
	3500 5150 3500 5300
Wire Wire Line
	3900 5300 3500 5300
Connection ~ 3500 5300
$Comp
L power:GND #PWR0124
U 1 1 5D469588
P 3900 5500
F 0 "#PWR0124" H 3900 5250 50  0001 C CNN
F 1 "GND" H 3905 5327 50  0000 C CNN
F 2 "" H 3900 5500 50  0001 C CNN
F 3 "" H 3900 5500 50  0001 C CNN
	1    3900 5500
	1    0    0    -1  
$EndComp
Wire Wire Line
	3500 5300 3500 5550
$Comp
L power:-15V #PWR0125
U 1 1 5D472AAA
P 3500 5150
F 0 "#PWR0125" H 3500 5250 50  0001 C CNN
F 1 "-15V" H 3515 5323 50  0000 C CNN
F 2 "" H 3500 5150 50  0001 C CNN
F 3 "" H 3500 5150 50  0001 C CNN
	1    3500 5150
	1    0    0    -1  
$EndComp
$Comp
L Device:C_Small C20
U 1 1 5D4848C1
P 3650 4500
F 0 "C20" V 3879 4500 50  0000 C CNN
F 1 "100nF" V 3788 4500 50  0000 C CNN
F 2 "Capacitor_THT:C_Rect_L7.0mm_W2.5mm_P5.00mm" H 3650 4500 50  0001 C CNN
F 3 "~" H 3650 4500 50  0001 C CNN
	1    3650 4500
	0    -1   -1   0   
$EndComp
Wire Wire Line
	3750 4500 3950 4500
Wire Wire Line
	3950 4500 3950 4850
Wire Wire Line
	3950 4850 3800 4850
$Comp
L Diode:1N4148 D5
U 1 1 5D4A95A8
P 5000 5550
F 0 "D5" V 5046 5471 50  0000 R CNN
F 1 "1N4148" V 4955 5471 50  0000 R CNN
F 2 "Diode_THT:D_DO-35_SOD27_P7.62mm_Horizontal" H 5000 5375 50  0001 C CNN
F 3 "http://www.nxp.com/documents/data_sheet/1N4148_1N4448.pdf" H 5000 5550 50  0001 C CNN
	1    5000 5550
	0    -1   -1   0   
$EndComp
$Comp
L Diode:1N4148 D6
U 1 1 5D4A9B04
P 5000 6150
F 0 "D6" V 5046 6071 50  0000 R CNN
F 1 "1N4148" V 4955 6071 50  0000 R CNN
F 2 "Diode_THT:D_DO-35_SOD27_P7.62mm_Horizontal" H 5000 5975 50  0001 C CNN
F 3 "http://www.nxp.com/documents/data_sheet/1N4148_1N4448.pdf" H 5000 6150 50  0001 C CNN
	1    5000 6150
	0    -1   -1   0   
$EndComp
$Comp
L Transistor:BC327 Q2
U 1 1 5D4A9C8B
P 5350 6600
F 0 "Q2" H 5541 6554 50  0000 L CNN
F 1 "BC327" H 5541 6645 50  0000 L CNN
F 2 "Package_TO_SOT_THT:TO-92S_Wide" H 5550 6525 50  0001 L CIN
F 3 "http://www.onsemi.com/pub_link/Collateral/BC327-D.PDF" H 5350 6600 50  0001 L CNN
	1    5350 6600
	1    0    0    1   
$EndComp
$Comp
L Transistor:BC337 Q1
U 1 1 5D4A9D59
P 5350 5100
F 0 "Q1" H 5541 5146 50  0000 L CNN
F 1 "BC337" H 5541 5055 50  0000 L CNN
F 2 "Package_TO_SOT_THT:TO-92S_Wide" H 5550 5025 50  0001 L CIN
F 3 "http://www.nxp.com/documents/data_sheet/BC817_BC817W_BC337.pdf" H 5350 5100 50  0001 L CNN
	1    5350 5100
	1    0    0    -1  
$EndComp
$Comp
L Device:R R18
U 1 1 5D4C7326
P 5450 5600
F 0 "R18" H 5520 5646 50  0000 L CNN
F 1 "10" H 5520 5555 50  0000 L CNN
F 2 "Resistor_THT:R_Axial_DIN0207_L6.3mm_D2.5mm_P7.62mm_Horizontal" V 5380 5600 50  0001 C CNN
F 3 "~" H 5450 5600 50  0001 C CNN
	1    5450 5600
	1    0    0    -1  
$EndComp
$Comp
L Device:R R19
U 1 1 5D4C73FE
P 5450 6100
F 0 "R19" H 5520 6146 50  0000 L CNN
F 1 "10" H 5520 6055 50  0000 L CNN
F 2 "Resistor_THT:R_Axial_DIN0207_L6.3mm_D2.5mm_P7.62mm_Horizontal" V 5380 6100 50  0001 C CNN
F 3 "~" H 5450 6100 50  0001 C CNN
	1    5450 6100
	1    0    0    -1  
$EndComp
Wire Wire Line
	5000 5400 5000 5100
Wire Wire Line
	5000 5100 5150 5100
Wire Wire Line
	5450 5300 5450 5450
Wire Wire Line
	5450 5750 5450 5850
Wire Wire Line
	5000 5700 5000 5850
Connection ~ 5000 5850
Wire Wire Line
	5000 5850 5000 6000
Wire Wire Line
	5450 6250 5450 6400
Wire Wire Line
	5000 6300 5000 6600
Wire Wire Line
	5000 6600 5150 6600
Wire Wire Line
	3900 5850 5000 5850
$Comp
L Device:R R16
U 1 1 5D4FD8C4
P 5000 4800
F 0 "R16" H 5070 4846 50  0000 L CNN
F 1 "3k9" H 5070 4755 50  0000 L CNN
F 2 "Resistor_THT:R_Axial_DIN0207_L6.3mm_D2.5mm_P7.62mm_Horizontal" V 4930 4800 50  0001 C CNN
F 3 "~" H 5000 4800 50  0001 C CNN
	1    5000 4800
	1    0    0    -1  
$EndComp
$Comp
L Device:R R17
U 1 1 5D5032E5
P 5000 6900
F 0 "R17" H 5070 6946 50  0000 L CNN
F 1 "3k9" H 5070 6855 50  0000 L CNN
F 2 "Resistor_THT:R_Axial_DIN0207_L6.3mm_D2.5mm_P7.62mm_Horizontal" V 4930 6900 50  0001 C CNN
F 3 "~" H 5000 6900 50  0001 C CNN
	1    5000 6900
	1    0    0    -1  
$EndComp
Wire Wire Line
	5000 4950 5000 5100
Connection ~ 5000 5100
Wire Wire Line
	5000 4650 5000 4550
Wire Wire Line
	5000 4550 5450 4550
Wire Wire Line
	5450 4550 5450 4900
Wire Wire Line
	5000 6600 5000 6750
Connection ~ 5000 6600
Wire Wire Line
	5000 7050 5000 7150
Wire Wire Line
	5000 7150 5200 7150
Wire Wire Line
	5450 7150 5450 6800
$Comp
L Device:CP C11
U 1 1 5D523177
P 4650 4750
F 0 "C11" H 4768 4796 50  0000 L CNN
F 1 "10uF" H 4768 4705 50  0000 L CNN
F 2 "Capacitor_THT:CP_Radial_D6.3mm_P2.50mm" H 4688 4600 50  0001 C CNN
F 3 "~" H 4650 4750 50  0001 C CNN
	1    4650 4750
	1    0    0    -1  
$EndComp
$Comp
L Device:C_Small C12
U 1 1 5D5295BE
P 4300 4750
F 0 "C12" H 4392 4796 50  0000 L CNN
F 1 "100nF" H 4392 4705 50  0000 L CNN
F 2 "Capacitor_THT:C_Rect_L7.0mm_W2.5mm_P5.00mm" H 4300 4750 50  0001 C CNN
F 3 "~" H 4300 4750 50  0001 C CNN
	1    4300 4750
	1    0    0    -1  
$EndComp
Wire Wire Line
	4300 4650 4300 4550
Wire Wire Line
	4300 4550 4650 4550
Connection ~ 5000 4550
Wire Wire Line
	4650 4600 4650 4550
Connection ~ 4650 4550
Wire Wire Line
	4650 4550 5000 4550
Wire Wire Line
	4300 4850 4300 5000
Wire Wire Line
	4300 5000 4450 5000
Wire Wire Line
	4650 5000 4650 4900
$Comp
L power:GND #PWR0126
U 1 1 5D543AAA
P 4450 5050
F 0 "#PWR0126" H 4450 4800 50  0001 C CNN
F 1 "GND" H 4455 4877 50  0000 C CNN
F 2 "" H 4450 5050 50  0001 C CNN
F 3 "" H 4450 5050 50  0001 C CNN
	1    4450 5050
	1    0    0    -1  
$EndComp
$Comp
L power:+15V #PWR0127
U 1 1 5D54A8E0
P 5000 4550
F 0 "#PWR0127" H 5000 4400 50  0001 C CNN
F 1 "+15V" H 5015 4723 50  0000 C CNN
F 2 "" H 5000 4550 50  0001 C CNN
F 3 "" H 5000 4550 50  0001 C CNN
	1    5000 4550
	1    0    0    -1  
$EndComp
$Comp
L Device:CP C13
U 1 1 5D5669EE
P 4650 7350
F 0 "C13" H 4768 7396 50  0000 L CNN
F 1 "10uF" H 4768 7305 50  0000 L CNN
F 2 "Capacitor_THT:CP_Radial_D6.3mm_P2.50mm" H 4688 7200 50  0001 C CNN
F 3 "~" H 4650 7350 50  0001 C CNN
	1    4650 7350
	-1   0    0    1   
$EndComp
$Comp
L Device:C_Small C14
U 1 1 5D5669F5
P 4300 7350
F 0 "C14" H 4050 7400 50  0000 L CNN
F 1 "100nF" H 4050 7250 50  0000 L CNN
F 2 "Capacitor_THT:C_Rect_L7.0mm_W2.5mm_P5.00mm" H 4300 7350 50  0001 C CNN
F 3 "~" H 4300 7350 50  0001 C CNN
	1    4300 7350
	1    0    0    -1  
$EndComp
Wire Wire Line
	4300 7250 4300 7150
Wire Wire Line
	4300 7150 4650 7150
Wire Wire Line
	4650 7200 4650 7150
Connection ~ 4650 7150
Wire Wire Line
	4650 7150 5000 7150
Wire Wire Line
	4300 7450 4300 7600
Wire Wire Line
	4300 7600 4450 7600
Wire Wire Line
	4650 7600 4650 7500
$Comp
L power:GND #PWR0128
U 1 1 5D566A04
P 4450 7650
F 0 "#PWR0128" H 4450 7400 50  0001 C CNN
F 1 "GND" H 4455 7477 50  0000 C CNN
F 2 "" H 4450 7650 50  0001 C CNN
F 3 "" H 4450 7650 50  0001 C CNN
	1    4450 7650
	1    0    0    -1  
$EndComp
Wire Wire Line
	3250 4850 3500 4850
Wire Wire Line
	3250 4850 3250 4500
Wire Wire Line
	3250 4500 3550 4500
Connection ~ 3250 4850
Wire Wire Line
	3950 4500 3950 4250
Wire Wire Line
	3950 4250 6100 4250
Wire Wire Line
	6100 4250 6100 5850
Wire Wire Line
	6100 5850 5450 5850
Connection ~ 3950 4500
Connection ~ 5450 5850
Wire Wire Line
	5450 5850 5450 5950
$Comp
L Connector_Generic:Conn_01x01 J3
U 1 1 5D2D59E5
P 6300 5850
F 0 "J3" H 6220 5625 50  0000 C CNN
F 1 "SW1" H 6220 5716 50  0000 C CNN
F 2 "Connector_Wire:SolderWirePad_1x01_Drill1mm" H 6300 5850 50  0001 C CNN
F 3 "~" H 6300 5850 50  0001 C CNN
	1    6300 5850
	1    0    0    -1  
$EndComp
Connection ~ 6100 5850
$Comp
L Connector_Generic:Conn_01x01 J4
U 1 1 5D2F60CB
P 6700 5150
F 0 "J4" H 6620 4925 50  0000 C CNN
F 1 "SW2" H 6620 5016 50  0000 C CNN
F 2 "Connector_Wire:SolderWirePad_1x01_Drill1mm" H 6700 5150 50  0001 C CNN
F 3 "~" H 6700 5150 50  0001 C CNN
	1    6700 5150
	-1   0    0    1   
$EndComp
$Comp
L Connector_Generic:Conn_01x01 J5
U 1 1 5D2FDF89
P 6700 5500
F 0 "J5" H 6620 5275 50  0000 C CNN
F 1 "SW3" H 6620 5366 50  0000 C CNN
F 2 "Connector_Wire:SolderWirePad_1x01_Drill1mm" H 6700 5500 50  0001 C CNN
F 3 "~" H 6700 5500 50  0001 C CNN
	1    6700 5500
	-1   0    0    1   
$EndComp
$Comp
L Connector_Generic:Conn_01x01 J6
U 1 1 5D305E46
P 6700 5850
F 0 "J6" H 6620 5625 50  0000 C CNN
F 1 "SW4" H 6620 5716 50  0000 C CNN
F 2 "Connector_Wire:SolderWirePad_1x01_Drill1mm" H 6700 5850 50  0001 C CNN
F 3 "~" H 6700 5850 50  0001 C CNN
	1    6700 5850
	-1   0    0    1   
$EndComp
$Comp
L Connector_Generic:Conn_01x01 J7
U 1 1 5D30DD04
P 6700 6200
F 0 "J7" H 6620 5975 50  0000 C CNN
F 1 "SW5" H 6620 6066 50  0000 C CNN
F 2 "Connector_Wire:SolderWirePad_1x01_Drill1mm" H 6700 6200 50  0001 C CNN
F 3 "~" H 6700 6200 50  0001 C CNN
	1    6700 6200
	-1   0    0    1   
$EndComp
$Comp
L Connector_Generic:Conn_01x01 J8
U 1 1 5D315BC3
P 6700 6550
F 0 "J8" H 6620 6325 50  0000 C CNN
F 1 "SW6" H 6620 6416 50  0000 C CNN
F 2 "Connector_Wire:SolderWirePad_1x01_Drill1mm" H 6700 6550 50  0001 C CNN
F 3 "~" H 6700 6550 50  0001 C CNN
	1    6700 6550
	-1   0    0    1   
$EndComp
$Comp
L Device:R R20
U 1 1 5D32636C
P 7250 5150
F 0 "R20" H 7320 5196 50  0000 L CNN
F 1 "10" H 7320 5105 50  0000 L CNN
F 2 "Resistor_THT:R_Axial_DIN0207_L6.3mm_D2.5mm_P7.62mm_Horizontal" V 7180 5150 50  0001 C CNN
F 3 "~" H 7250 5150 50  0001 C CNN
	1    7250 5150
	0    -1   -1   0   
$EndComp
$Comp
L Device:R R21
U 1 1 5D33F258
P 7250 5500
F 0 "R21" H 7320 5546 50  0000 L CNN
F 1 "100" H 7320 5455 50  0000 L CNN
F 2 "Resistor_THT:R_Axial_DIN0207_L6.3mm_D2.5mm_P7.62mm_Horizontal" V 7180 5500 50  0001 C CNN
F 3 "~" H 7250 5500 50  0001 C CNN
	1    7250 5500
	0    -1   -1   0   
$EndComp
$Comp
L Device:R R22
U 1 1 5D34712A
P 7250 5850
F 0 "R22" H 7320 5896 50  0000 L CNN
F 1 "1K" H 7320 5805 50  0000 L CNN
F 2 "Resistor_THT:R_Axial_DIN0207_L6.3mm_D2.5mm_P7.62mm_Horizontal" V 7180 5850 50  0001 C CNN
F 3 "~" H 7250 5850 50  0001 C CNN
	1    7250 5850
	0    -1   -1   0   
$EndComp
$Comp
L Device:R R23
U 1 1 5D34EFFD
P 7250 6200
F 0 "R23" H 7320 6246 50  0000 L CNN
F 1 "10K" H 7320 6155 50  0000 L CNN
F 2 "Resistor_THT:R_Axial_DIN0207_L6.3mm_D2.5mm_P7.62mm_Horizontal" V 7180 6200 50  0001 C CNN
F 3 "~" H 7250 6200 50  0001 C CNN
	1    7250 6200
	0    -1   -1   0   
$EndComp
$Comp
L Device:R R24
U 1 1 5D356EC7
P 7250 6550
F 0 "R24" H 7320 6596 50  0000 L CNN
F 1 "100K" H 7320 6505 50  0000 L CNN
F 2 "Resistor_THT:R_Axial_DIN0207_L6.3mm_D2.5mm_P7.62mm_Horizontal" V 7180 6550 50  0001 C CNN
F 3 "~" H 7250 6550 50  0001 C CNN
	1    7250 6550
	0    -1   -1   0   
$EndComp
Wire Wire Line
	6900 5150 7100 5150
Wire Wire Line
	6900 5500 7100 5500
Wire Wire Line
	6900 5850 7100 5850
Wire Wire Line
	6900 6200 7100 6200
Wire Wire Line
	6900 6550 7100 6550
Wire Wire Line
	7400 5150 7600 5150
Wire Wire Line
	7600 5150 7600 5500
Wire Wire Line
	7600 6550 7400 6550
Wire Wire Line
	7400 6200 7600 6200
Connection ~ 7600 6200
Wire Wire Line
	7600 6200 7600 6550
Wire Wire Line
	7400 5850 7600 5850
Connection ~ 7600 5850
Wire Wire Line
	7600 5850 7600 6200
Wire Wire Line
	7400 5500 7600 5500
Connection ~ 7600 5500
Wire Wire Line
	7600 5500 7600 5850
$Comp
L Amplifier_Operational:OP07 U7
U 1 1 5D3AC554
P 5550 8100
F 0 "U7" H 5891 8054 50  0000 L CNN
F 1 "OPA627" H 5891 8145 50  0000 L CNN
F 2 "Package_DIP:DIP-8_W7.62mm_Socket_LongPads" H 5600 8150 50  0001 C CNN
F 3 "http://www.analog.com/media/en/technical-documentation/data-sheets/OP07.pdf" H 5600 8250 50  0001 C CNN
	1    5550 8100
	-1   0    0    -1  
$EndComp
$Comp
L Device:R R25
U 1 1 5D3D1CC4
P 6300 8000
F 0 "R25" V 6200 8000 50  0000 C CNN
F 1 "1k" V 6100 8000 50  0000 C CNN
F 2 "Resistor_THT:R_Axial_DIN0207_L6.3mm_D2.5mm_P7.62mm_Horizontal" V 6230 8000 50  0001 C CNN
F 3 "~" H 6300 8000 50  0001 C CNN
	1    6300 8000
	0    -1   -1   0   
$EndComp
Wire Wire Line
	7600 5850 8000 5850
Wire Wire Line
	8000 5850 8000 8000
Wire Wire Line
	8000 8000 6450 8000
Wire Wire Line
	5850 8000 6150 8000
$Comp
L Device:R R26
U 1 1 5D41468B
P 5250 9150
F 0 "R26" V 5150 9150 50  0000 C CNN
F 1 "1k" V 5050 9150 50  0000 C CNN
F 2 "Resistor_THT:R_Axial_DIN0207_L6.3mm_D2.5mm_P7.62mm_Horizontal" V 5180 9150 50  0001 C CNN
F 3 "~" H 5250 9150 50  0001 C CNN
	1    5250 9150
	0    -1   -1   0   
$EndComp
Wire Wire Line
	5250 8100 4600 8100
$Comp
L Device:R R27
U 1 1 5D433252
P 3150 7000
F 0 "R27" V 3050 7000 50  0000 C CNN
F 1 "2k7-1%" V 2950 7000 50  0000 C CNN
F 2 "Resistor_THT:R_Axial_DIN0207_L6.3mm_D2.5mm_P7.62mm_Horizontal" V 3080 7000 50  0001 C CNN
F 3 "~" H 3150 7000 50  0001 C CNN
	1    3150 7000
	-1   0    0    1   
$EndComp
Wire Wire Line
	4600 8100 3150 8100
Wire Wire Line
	3150 8100 3150 7150
Connection ~ 4600 8100
Wire Wire Line
	3150 6850 3150 5950
Connection ~ 3150 5950
Wire Wire Line
	3150 5950 3300 5950
$Comp
L Device:C_Small C15
U 1 1 5D471939
P 6050 7650
F 0 "C15" H 6142 7696 50  0000 L CNN
F 1 "100nF" H 6142 7605 50  0000 L CNN
F 2 "Capacitor_THT:C_Rect_L7.0mm_W2.5mm_P5.00mm" H 6050 7650 50  0001 C CNN
F 3 "~" H 6050 7650 50  0001 C CNN
	1    6050 7650
	1    0    0    -1  
$EndComp
Wire Wire Line
	5650 7400 5650 7550
Wire Wire Line
	6050 7550 5650 7550
Connection ~ 5650 7550
Wire Wire Line
	5650 7550 5650 7800
$Comp
L power:+15V #PWR0129
U 1 1 5D471944
P 5650 7400
F 0 "#PWR0129" H 5650 7250 50  0001 C CNN
F 1 "+15V" H 5665 7573 50  0000 C CNN
F 2 "" H 5650 7400 50  0001 C CNN
F 3 "" H 5650 7400 50  0001 C CNN
	1    5650 7400
	1    0    0    -1  
$EndComp
$Comp
L power:GND #PWR0130
U 1 1 5D47CE25
P 6050 7750
F 0 "#PWR0130" H 6050 7500 50  0001 C CNN
F 1 "GND" H 6055 7577 50  0000 C CNN
F 2 "" H 6050 7750 50  0001 C CNN
F 3 "" H 6050 7750 50  0001 C CNN
	1    6050 7750
	1    0    0    -1  
$EndComp
Wire Wire Line
	5650 8400 5650 8450
$Comp
L Device:C_Small C16
U 1 1 5D49EFFF
P 6050 8550
F 0 "C16" H 6142 8596 50  0000 L CNN
F 1 "100nF" H 6142 8505 50  0000 L CNN
F 2 "Capacitor_THT:C_Rect_L7.0mm_W2.5mm_P5.00mm" H 6050 8550 50  0001 C CNN
F 3 "~" H 6050 8550 50  0001 C CNN
	1    6050 8550
	1    0    0    -1  
$EndComp
$Comp
L power:GND #PWR0131
U 1 1 5D49F006
P 6050 8650
F 0 "#PWR0131" H 6050 8400 50  0001 C CNN
F 1 "GND" H 6055 8477 50  0000 C CNN
F 2 "" H 6050 8650 50  0001 C CNN
F 3 "" H 6050 8650 50  0001 C CNN
	1    6050 8650
	1    0    0    -1  
$EndComp
Wire Wire Line
	6050 8450 5650 8450
Connection ~ 5650 8450
Wire Wire Line
	5650 8450 5650 8600
$Comp
L power:-15V #PWR0132
U 1 1 5D49F00F
P 5650 8600
F 0 "#PWR0132" H 5650 8700 50  0001 C CNN
F 1 "-15V" H 5665 8773 50  0000 C CNN
F 2 "" H 5650 8600 50  0001 C CNN
F 3 "" H 5650 8600 50  0001 C CNN
	1    5650 8600
	-1   0    0    1   
$EndComp
Wire Wire Line
	6450 8200 6450 9150
Wire Wire Line
	5850 8200 6450 8200
Wire Wire Line
	5400 9150 6450 9150
Wire Wire Line
	4600 8100 4600 9150
Wire Wire Line
	4600 9150 5100 9150
Text GLabel 2900 8100 0    118  Input ~ 0
Vc
Wire Wire Line
	2900 8100 3150 8100
Connection ~ 3150 8100
$Comp
L Connector_Generic:Conn_01x01 J9
U 1 1 5D4E7296
P 8950 5850
F 0 "J9" H 8870 5625 50  0000 C CNN
F 1 "Out" H 8870 5716 50  0000 C CNN
F 2 "Connector_Wire:SolderWirePad_1x01_Drill1mm" H 8950 5850 50  0001 C CNN
F 3 "~" H 8950 5850 50  0001 C CNN
	1    8950 5850
	1    0    0    -1  
$EndComp
Wire Wire Line
	8750 5850 8000 5850
Connection ~ 8000 5850
$Comp
L Connector_Generic:Conn_01x01 J10
U 1 1 5D4FE85F
P 8950 6300
F 0 "J10" H 8870 6075 50  0000 C CNN
F 1 "GND_out" H 8870 6166 50  0000 C CNN
F 2 "Connector_Wire:SolderWirePad_1x01_Drill1mm" H 8950 6300 50  0001 C CNN
F 3 "~" H 8950 6300 50  0001 C CNN
	1    8950 6300
	1    0    0    -1  
$EndComp
$Comp
L power:GND #PWR0133
U 1 1 5D50A8A3
P 8500 6450
F 0 "#PWR0133" H 8500 6200 50  0001 C CNN
F 1 "GND" H 8505 6277 50  0000 C CNN
F 2 "" H 8500 6450 50  0001 C CNN
F 3 "" H 8500 6450 50  0001 C CNN
	1    8500 6450
	1    0    0    -1  
$EndComp
Wire Wire Line
	8750 6300 8500 6300
Wire Wire Line
	8500 6300 8500 6450
Text GLabel 1300 11000 0    118  Input ~ 0
Vc
$Comp
L Comparator:LM393 U8
U 1 1 5D52F97C
P 3350 11100
F 0 "U8" H 3350 10733 50  0000 C CNN
F 1 "LM393" H 3350 10824 50  0000 C CNN
F 2 "Package_DIP:DIP-8_W7.62mm_Socket_LongPads" H 3350 11100 50  0001 C CNN
F 3 "http://www.ti.com/lit/ds/symlink/lm393-n.pdf" H 3350 11100 50  0001 C CNN
	1    3350 11100
	1    0    0    1   
$EndComp
$Comp
L Comparator:LM393 U8
U 2 1 5D52FA7B
P 3350 11900
F 0 "U8" H 3350 12267 50  0000 C CNN
F 1 "LM393" H 3350 12176 50  0000 C CNN
F 2 "Package_DIP:DIP-8_W7.62mm_Socket_LongPads" H 3350 11900 50  0001 C CNN
F 3 "http://www.ti.com/lit/ds/symlink/lm393-n.pdf" H 3350 11900 50  0001 C CNN
	2    3350 11900
	1    0    0    -1  
$EndComp
$Comp
L Comparator:LM393 U8
U 3 1 5D52FB80
P 6800 10900
F 0 "U8" H 6758 10946 50  0000 L CNN
F 1 "LM393" H 6758 10855 50  0000 L CNN
F 2 "Package_DIP:DIP-8_W7.62mm_Socket_LongPads" H 6800 10900 50  0001 C CNN
F 3 "http://www.ti.com/lit/ds/symlink/lm393-n.pdf" H 6800 10900 50  0001 C CNN
	3    6800 10900
	1    0    0    -1  
$EndComp
$Comp
L Device:R R28
U 1 1 5D54B04E
P 1650 11000
F 0 "R28" V 1550 11000 50  0000 C CNN
F 1 "20k" V 1450 11000 50  0000 C CNN
F 2 "Resistor_THT:R_Axial_DIN0207_L6.3mm_D2.5mm_P7.62mm_Horizontal" V 1580 11000 50  0001 C CNN
F 3 "~" H 1650 11000 50  0001 C CNN
	1    1650 11000
	0    -1   -1   0   
$EndComp
$Comp
L Device:R R29
U 1 1 5D556E84
P 1900 11250
F 0 "R29" V 1800 11250 50  0000 C CNN
F 1 "100k" V 1700 11250 50  0000 C CNN
F 2 "Resistor_THT:R_Axial_DIN0207_L6.3mm_D2.5mm_P7.62mm_Horizontal" V 1830 11250 50  0001 C CNN
F 3 "~" H 1900 11250 50  0001 C CNN
	1    1900 11250
	-1   0    0    1   
$EndComp
Wire Wire Line
	1300 11000 1400 11000
Wire Wire Line
	1800 11000 1900 11000
Wire Wire Line
	1900 11000 1900 11100
Connection ~ 1900 11000
$Comp
L power:GND #PWR0134
U 1 1 5D59E87F
P 1900 11400
F 0 "#PWR0134" H 1900 11150 50  0001 C CNN
F 1 "GND" H 1905 11227 50  0000 C CNN
F 2 "" H 1900 11400 50  0001 C CNN
F 3 "" H 1900 11400 50  0001 C CNN
	1    1900 11400
	1    0    0    -1  
$EndComp
Wire Wire Line
	1900 11000 2550 11000
$Comp
L Device:R R30
U 1 1 5D5CF5F8
P 1350 12450
F 0 "R30" V 1250 12450 50  0000 C CNN
F 1 "3k9" V 1150 12450 50  0000 C CNN
F 2 "Resistor_THT:R_Axial_DIN0207_L6.3mm_D2.5mm_P7.62mm_Horizontal" V 1280 12450 50  0001 C CNN
F 3 "~" H 1350 12450 50  0001 C CNN
	1    1350 12450
	-1   0    0    1   
$EndComp
$Comp
L Device:R R31
U 1 1 5D5DB8D3
P 1350 12900
F 0 "R31" V 1250 12900 50  0000 C CNN
F 1 "6k8" V 1150 12900 50  0000 C CNN
F 2 "Resistor_THT:R_Axial_DIN0207_L6.3mm_D2.5mm_P7.62mm_Horizontal" V 1280 12900 50  0001 C CNN
F 3 "~" H 1350 12900 50  0001 C CNN
	1    1350 12900
	-1   0    0    1   
$EndComp
Wire Wire Line
	1350 12600 1350 12650
$Comp
L Device:R R32
U 1 1 5D5F44E9
P 1800 12450
F 0 "R32" V 1700 12450 50  0000 C CNN
F 1 "3k9" V 1600 12450 50  0000 C CNN
F 2 "Resistor_THT:R_Axial_DIN0207_L6.3mm_D2.5mm_P7.62mm_Horizontal" V 1730 12450 50  0001 C CNN
F 3 "~" H 1800 12450 50  0001 C CNN
	1    1800 12450
	-1   0    0    1   
$EndComp
$Comp
L Device:R R33
U 1 1 5D5F44F0
P 1800 12900
F 0 "R33" V 1700 12900 50  0000 C CNN
F 1 "6k8" V 1600 12900 50  0000 C CNN
F 2 "Resistor_THT:R_Axial_DIN0207_L6.3mm_D2.5mm_P7.62mm_Horizontal" V 1730 12900 50  0001 C CNN
F 3 "~" H 1800 12900 50  0001 C CNN
	1    1800 12900
	-1   0    0    1   
$EndComp
Wire Wire Line
	1800 12600 1800 12650
$Comp
L power:GND #PWR0135
U 1 1 5D619C43
P 1350 13050
F 0 "#PWR0135" H 1350 12800 50  0001 C CNN
F 1 "GND" H 1355 12877 50  0000 C CNN
F 2 "" H 1350 13050 50  0001 C CNN
F 3 "" H 1350 13050 50  0001 C CNN
	1    1350 13050
	1    0    0    -1  
$EndComp
$Comp
L power:GND #PWR0136
U 1 1 5D6261C8
P 1800 13050
F 0 "#PWR0136" H 1800 12800 50  0001 C CNN
F 1 "GND" H 1805 12877 50  0000 C CNN
F 2 "" H 1800 13050 50  0001 C CNN
F 3 "" H 1800 13050 50  0001 C CNN
	1    1800 13050
	1    0    0    -1  
$EndComp
$Comp
L power:+15V #PWR0137
U 1 1 5D632A12
P 1350 12300
F 0 "#PWR0137" H 1350 12150 50  0001 C CNN
F 1 "+15V" H 1365 12473 50  0000 C CNN
F 2 "" H 1350 12300 50  0001 C CNN
F 3 "" H 1350 12300 50  0001 C CNN
	1    1350 12300
	1    0    0    -1  
$EndComp
$Comp
L power:-15V #PWR0138
U 1 1 5D632B0D
P 1800 12300
F 0 "#PWR0138" H 1800 12400 50  0001 C CNN
F 1 "-15V" H 1815 12473 50  0000 C CNN
F 2 "" H 1800 12300 50  0001 C CNN
F 3 "" H 1800 12300 50  0001 C CNN
	1    1800 12300
	1    0    0    -1  
$EndComp
Wire Wire Line
	1350 12650 1600 12650
Wire Wire Line
	1600 12650 1600 11750
Wire Wire Line
	1600 11750 2250 11750
Wire Wire Line
	2250 11750 2250 11200
Wire Wire Line
	2250 11200 3050 11200
Connection ~ 1350 12650
Wire Wire Line
	1350 12650 1350 12750
Wire Wire Line
	2550 11000 2550 11800
Wire Wire Line
	2550 11800 3050 11800
Connection ~ 2550 11000
Wire Wire Line
	2550 11000 3050 11000
Wire Wire Line
	1800 12650 2250 12650
Wire Wire Line
	2250 12650 2250 12000
Wire Wire Line
	2250 12000 3050 12000
Connection ~ 1800 12650
Wire Wire Line
	1800 12650 1800 12750
Wire Wire Line
	3650 11100 3900 11100
Wire Wire Line
	3900 11100 3900 11900
Wire Wire Line
	3900 11900 3650 11900
$Comp
L Device:R R34
U 1 1 5D66838B
P 4200 11100
F 0 "R34" V 4100 11100 50  0000 C CNN
F 1 "5k6" V 4000 11100 50  0000 C CNN
F 2 "Resistor_THT:R_Axial_DIN0207_L6.3mm_D2.5mm_P7.62mm_Horizontal" V 4130 11100 50  0001 C CNN
F 3 "~" H 4200 11100 50  0001 C CNN
	1    4200 11100
	0    -1   -1   0   
$EndComp
Wire Wire Line
	3900 11100 4050 11100
Connection ~ 3900 11100
$Comp
L Device:R R35
U 1 1 5D68479A
P 4500 10850
F 0 "R35" V 4400 10850 50  0000 C CNN
F 1 "2k7" V 4300 10850 50  0000 C CNN
F 2 "Resistor_THT:R_Axial_DIN0207_L6.3mm_D2.5mm_P7.62mm_Horizontal" V 4430 10850 50  0001 C CNN
F 3 "~" H 4500 10850 50  0001 C CNN
	1    4500 10850
	-1   0    0    1   
$EndComp
Wire Wire Line
	4350 11100 4500 11100
Wire Wire Line
	4500 11100 4500 11000
$Comp
L Transistor:BC327 Q3
U 1 1 5D6A0A54
P 4950 11100
F 0 "Q3" H 5141 11054 50  0000 L CNN
F 1 "BC327" H 5141 11145 50  0000 L CNN
F 2 "Package_TO_SOT_THT:TO-92S_Wide" H 5150 11025 50  0001 L CIN
F 3 "http://www.onsemi.com/pub_link/Collateral/BC327-D.PDF" H 4950 11100 50  0001 L CNN
	1    4950 11100
	1    0    0    1   
$EndComp
Wire Wire Line
	4500 11100 4750 11100
Connection ~ 4500 11100
Wire Wire Line
	4500 10700 4500 10550
Wire Wire Line
	4500 10550 4750 10550
Wire Wire Line
	5050 10550 5050 10900
$Comp
L power:+15V #PWR0139
U 1 1 5D6CC737
P 4750 10500
F 0 "#PWR0139" H 4750 10350 50  0001 C CNN
F 1 "+15V" H 4765 10673 50  0000 C CNN
F 2 "" H 4750 10500 50  0001 C CNN
F 3 "" H 4750 10500 50  0001 C CNN
	1    4750 10500
	1    0    0    -1  
$EndComp
Wire Wire Line
	4750 10500 4750 10550
Connection ~ 4750 10550
Wire Wire Line
	4750 10550 5050 10550
$Comp
L Device:R R36
U 1 1 5D6FA4C1
P 5050 11550
F 0 "R36" V 4950 11550 50  0000 C CNN
F 1 "47" V 4850 11550 50  0000 C CNN
F 2 "Resistor_THT:R_Axial_DIN0207_L6.3mm_D2.5mm_P7.62mm_Horizontal" V 4980 11550 50  0001 C CNN
F 3 "~" H 5050 11550 50  0001 C CNN
	1    5050 11550
	-1   0    0    1   
$EndComp
Wire Wire Line
	5050 11300 5050 11350
$Comp
L power:GND #PWR0140
U 1 1 5D718076
P 5050 12100
F 0 "#PWR0140" H 5050 11850 50  0001 C CNN
F 1 "GND" H 5055 11927 50  0000 C CNN
F 2 "" H 5050 12100 50  0001 C CNN
F 3 "" H 5050 12100 50  0001 C CNN
	1    5050 12100
	1    0    0    -1  
$EndComp
$Comp
L Device:CP C17
U 1 1 5D745891
P 5050 11850
F 0 "C17" H 5168 11896 50  0000 L CNN
F 1 "10uF" H 5168 11805 50  0000 L CNN
F 2 "Capacitor_THT:CP_Radial_D6.3mm_P2.50mm" H 5088 11700 50  0001 C CNN
F 3 "~" H 5050 11850 50  0001 C CNN
	1    5050 11850
	1    0    0    -1  
$EndComp
Wire Wire Line
	5050 12000 5050 12100
$Comp
L Device:R R37
U 1 1 5D765C0A
P 5500 11350
F 0 "R37" V 5400 11350 50  0000 C CNN
F 1 "8k2" V 5300 11350 50  0000 C CNN
F 2 "Resistor_THT:R_Axial_DIN0207_L6.3mm_D2.5mm_P7.62mm_Horizontal" V 5430 11350 50  0001 C CNN
F 3 "~" H 5500 11350 50  0001 C CNN
	1    5500 11350
	0    -1   -1   0   
$EndComp
Wire Wire Line
	5350 11350 5050 11350
Connection ~ 5050 11350
Wire Wire Line
	5050 11350 5050 11400
$Comp
L Device:R R38
U 1 1 5D783A94
P 5750 11650
F 0 "R38" V 5650 11650 50  0000 C CNN
F 1 "27k" V 5550 11650 50  0000 C CNN
F 2 "Resistor_THT:R_Axial_DIN0207_L6.3mm_D2.5mm_P7.62mm_Horizontal" V 5680 11650 50  0001 C CNN
F 3 "~" H 5750 11650 50  0001 C CNN
	1    5750 11650
	-1   0    0    1   
$EndComp
Wire Wire Line
	5650 11350 5750 11350
Wire Wire Line
	5750 11350 5750 11500
$Comp
L power:GND #PWR0141
U 1 1 5D7A20E1
P 5750 11800
F 0 "#PWR0141" H 5750 11550 50  0001 C CNN
F 1 "GND" H 5755 11627 50  0000 C CNN
F 2 "" H 5750 11800 50  0001 C CNN
F 3 "" H 5750 11800 50  0001 C CNN
	1    5750 11800
	1    0    0    -1  
$EndComp
$Comp
L Transistor:BC337 Q4
U 1 1 5D7B196E
P 6100 11350
F 0 "Q4" H 6291 11396 50  0000 L CNN
F 1 "BC337" H 6291 11305 50  0000 L CNN
F 2 "Package_TO_SOT_THT:TO-92S_Wide" H 6300 11275 50  0001 L CIN
F 3 "http://www.nxp.com/documents/data_sheet/BC817_BC817W_BC337.pdf" H 6100 11350 50  0001 L CNN
	1    6100 11350
	1    0    0    -1  
$EndComp
Wire Wire Line
	5900 11350 5750 11350
Connection ~ 5750 11350
$Comp
L power:GND #PWR0142
U 1 1 5D7C0FB9
P 6200 11700
F 0 "#PWR0142" H 6200 11450 50  0001 C CNN
F 1 "GND" H 6205 11527 50  0000 C CNN
F 2 "" H 6200 11700 50  0001 C CNN
F 3 "" H 6200 11700 50  0001 C CNN
	1    6200 11700
	1    0    0    -1  
$EndComp
Wire Wire Line
	6200 11550 6200 11700
$Comp
L Device:R R39
U 1 1 5D7DFCA4
P 6200 10900
F 0 "R39" V 6100 10900 50  0000 C CNN
F 1 "1k" V 6000 10900 50  0000 C CNN
F 2 "Resistor_THT:R_Axial_DIN0207_L6.3mm_D2.5mm_P7.62mm_Horizontal" V 6130 10900 50  0001 C CNN
F 3 "~" H 6200 10900 50  0001 C CNN
	1    6200 10900
	-1   0    0    1   
$EndComp
Wire Wire Line
	6200 11150 6200 11050
$Comp
L Device:LED LED1
U 1 1 5D7FEDF9
P 6200 10450
F 0 "LED1" V 6238 10333 50  0000 R CNN
F 1 "LED_C" V 6147 10333 50  0000 R CNN
F 2 "Connector_Wire:SolderWirePad_1x02_P3.81mm_Drill1mm" H 6200 10450 50  0001 C CNN
F 3 "~" H 6200 10450 50  0001 C CNN
	1    6200 10450
	0    -1   -1   0   
$EndComp
Wire Wire Line
	6200 10600 6200 10750
$Comp
L power:+15V #PWR0143
U 1 1 5D80EC13
P 6200 10200
F 0 "#PWR0143" H 6200 10050 50  0001 C CNN
F 1 "+15V" H 6215 10373 50  0000 C CNN
F 2 "" H 6200 10200 50  0001 C CNN
F 3 "" H 6200 10200 50  0001 C CNN
	1    6200 10200
	1    0    0    -1  
$EndComp
Wire Wire Line
	6200 10200 6200 10300
$Comp
L Device:C_Small C18
U 1 1 5D85F017
P 7100 10450
F 0 "C18" H 7192 10496 50  0000 L CNN
F 1 "100nF" H 7192 10405 50  0000 L CNN
F 2 "Capacitor_THT:C_Rect_L7.0mm_W2.5mm_P5.00mm" H 7100 10450 50  0001 C CNN
F 3 "~" H 7100 10450 50  0001 C CNN
	1    7100 10450
	1    0    0    -1  
$EndComp
Wire Wire Line
	6700 10200 6700 10350
Wire Wire Line
	7100 10350 6700 10350
Connection ~ 6700 10350
Wire Wire Line
	6700 10350 6700 10600
$Comp
L power:+15V #PWR0144
U 1 1 5D85F022
P 6700 10200
F 0 "#PWR0144" H 6700 10050 50  0001 C CNN
F 1 "+15V" H 6715 10373 50  0000 C CNN
F 2 "" H 6700 10200 50  0001 C CNN
F 3 "" H 6700 10200 50  0001 C CNN
	1    6700 10200
	1    0    0    -1  
$EndComp
Wire Wire Line
	6700 11200 6700 11250
$Comp
L Device:C_Small C19
U 1 1 5D86FCC0
P 7100 11350
F 0 "C19" H 7192 11396 50  0000 L CNN
F 1 "100nF" H 7192 11305 50  0000 L CNN
F 2 "Capacitor_THT:C_Rect_L7.0mm_W2.5mm_P5.00mm" H 7100 11350 50  0001 C CNN
F 3 "~" H 7100 11350 50  0001 C CNN
	1    7100 11350
	1    0    0    -1  
$EndComp
$Comp
L power:GND #PWR0145
U 1 1 5D86FCC7
P 7100 11450
F 0 "#PWR0145" H 7100 11200 50  0001 C CNN
F 1 "GND" H 7105 11277 50  0000 C CNN
F 2 "" H 7100 11450 50  0001 C CNN
F 3 "" H 7100 11450 50  0001 C CNN
	1    7100 11450
	1    0    0    -1  
$EndComp
Wire Wire Line
	7100 11250 6700 11250
Connection ~ 6700 11250
Wire Wire Line
	6700 11250 6700 11400
$Comp
L power:-15V #PWR0146
U 1 1 5D86FCD0
P 6700 11400
F 0 "#PWR0146" H 6700 11500 50  0001 C CNN
F 1 "-15V" H 6715 11573 50  0000 C CNN
F 2 "" H 6700 11400 50  0001 C CNN
F 3 "" H 6700 11400 50  0001 C CNN
	1    6700 11400
	-1   0    0    1   
$EndComp
$Comp
L power:GND #PWR0147
U 1 1 5D880838
P 7100 10550
F 0 "#PWR0147" H 7100 10300 50  0001 C CNN
F 1 "GND" H 7105 10377 50  0000 C CNN
F 2 "" H 7100 10550 50  0001 C CNN
F 3 "" H 7100 10550 50  0001 C CNN
	1    7100 10550
	1    0    0    -1  
$EndComp
Text Notes 2000 4600 2    118  ~ 0
VCCS\n\n
Text Notes 4450 10100 2    118  ~ 0
Indicador de compliância\n\n
$Comp
L power:-15V #PWR0154
U 1 1 5D379E83
P 5200 7250
F 0 "#PWR0154" H 5200 7350 50  0001 C CNN
F 1 "-15V" H 5215 7423 50  0000 C CNN
F 2 "" H 5200 7250 50  0001 C CNN
F 3 "" H 5200 7250 50  0001 C CNN
	1    5200 7250
	-1   0    0    1   
$EndComp
Wire Wire Line
	5200 7250 5200 7150
Connection ~ 5200 7150
Wire Wire Line
	5200 7150 5450 7150
Wire Wire Line
	4450 7650 4450 7600
Connection ~ 4450 7600
Wire Wire Line
	4450 7600 4650 7600
Wire Wire Line
	4450 5050 4450 5000
Connection ~ 4450 5000
Wire Wire Line
	4450 5000 4650 5000
$Comp
L Connector_Generic:Conn_01x01 J11
U 1 1 5D3D3A80
P 8200 10200
F 0 "J11" H 8120 9975 50  0000 C CNN
F 1 "+15V" H 8120 10066 50  0000 C CNN
F 2 "Connector_PinHeader_2.54mm:PinHeader_1x01_P2.54mm_Vertical" H 8200 10200 50  0001 C CNN
F 3 "~" H 8200 10200 50  0001 C CNN
	1    8200 10200
	-1   0    0    1   
$EndComp
$Comp
L Connector_Generic:Conn_01x01 J12
U 1 1 5D3DF6B7
P 8200 10550
F 0 "J12" H 8120 10325 50  0000 C CNN
F 1 "+5V" H 8120 10416 50  0000 C CNN
F 2 "Connector_PinHeader_2.54mm:PinHeader_1x01_P2.54mm_Vertical" H 8200 10550 50  0001 C CNN
F 3 "~" H 8200 10550 50  0001 C CNN
	1    8200 10550
	-1   0    0    1   
$EndComp
$Comp
L Connector_Generic:Conn_01x01 J13
U 1 1 5D42F6A8
P 8200 10900
F 0 "J13" H 8120 10675 50  0000 C CNN
F 1 "GND" H 8120 10766 50  0000 C CNN
F 2 "Connector_PinHeader_2.54mm:PinHeader_1x01_P2.54mm_Vertical" H 8200 10900 50  0001 C CNN
F 3 "~" H 8200 10900 50  0001 C CNN
	1    8200 10900
	-1   0    0    1   
$EndComp
$Comp
L Connector_Generic:Conn_01x01 J14
U 1 1 5D451CB7
P 8200 11250
F 0 "J14" H 8120 11025 50  0000 C CNN
F 1 "-5V" H 8120 11116 50  0000 C CNN
F 2 "Connector_PinHeader_2.54mm:PinHeader_1x01_P2.54mm_Vertical" H 8200 11250 50  0001 C CNN
F 3 "~" H 8200 11250 50  0001 C CNN
	1    8200 11250
	-1   0    0    1   
$EndComp
$Comp
L Connector_Generic:Conn_01x01 J15
U 1 1 5D451CBE
P 8200 11600
F 0 "J15" H 8120 11375 50  0000 C CNN
F 1 "-15V" H 8120 11466 50  0000 C CNN
F 2 "Connector_PinHeader_2.54mm:PinHeader_1x01_P2.54mm_Vertical" H 8200 11600 50  0001 C CNN
F 3 "~" H 8200 11600 50  0001 C CNN
	1    8200 11600
	-1   0    0    1   
$EndComp
$Comp
L power:+5V #PWR0113
U 1 1 5D45E6EF
P 8500 10500
F 0 "#PWR0113" H 8500 10350 50  0001 C CNN
F 1 "+5V" H 8515 10673 50  0000 C CNN
F 2 "" H 8500 10500 50  0001 C CNN
F 3 "" H 8500 10500 50  0001 C CNN
	1    8500 10500
	1    0    0    -1  
$EndComp
$Comp
L power:-5V #PWR0114
U 1 1 5D4818A5
P 8500 11300
F 0 "#PWR0114" H 8500 11400 50  0001 C CNN
F 1 "-5V" H 8515 11473 50  0000 C CNN
F 2 "" H 8500 11300 50  0001 C CNN
F 3 "" H 8500 11300 50  0001 C CNN
	1    8500 11300
	-1   0    0    1   
$EndComp
$Comp
L power:-15V #PWR0115
U 1 1 5D48D425
P 8500 11650
F 0 "#PWR0115" H 8500 11750 50  0001 C CNN
F 1 "-15V" H 8515 11823 50  0000 C CNN
F 2 "" H 8500 11650 50  0001 C CNN
F 3 "" H 8500 11650 50  0001 C CNN
	1    8500 11650
	-1   0    0    1   
$EndComp
$Comp
L power:+15V #PWR0148
U 1 1 5D499194
P 8500 10150
F 0 "#PWR0148" H 8500 10000 50  0001 C CNN
F 1 "+15V" H 8515 10323 50  0000 C CNN
F 2 "" H 8500 10150 50  0001 C CNN
F 3 "" H 8500 10150 50  0001 C CNN
	1    8500 10150
	1    0    0    -1  
$EndComp
$Comp
L power:GND #PWR0149
U 1 1 5D4A4DDA
P 8500 10950
F 0 "#PWR0149" H 8500 10700 50  0001 C CNN
F 1 "GND" H 8505 10777 50  0000 C CNN
F 2 "" H 8500 10950 50  0001 C CNN
F 3 "" H 8500 10950 50  0001 C CNN
	1    8500 10950
	1    0    0    -1  
$EndComp
Wire Wire Line
	8400 10200 8500 10200
Wire Wire Line
	8500 10200 8500 10150
Wire Wire Line
	8400 10550 8500 10550
Wire Wire Line
	8500 10550 8500 10500
Wire Wire Line
	8400 10900 8500 10900
Wire Wire Line
	8500 10900 8500 10950
Wire Wire Line
	8400 11250 8500 11250
Wire Wire Line
	8500 11250 8500 11300
Wire Wire Line
	8400 11600 8500 11600
Wire Wire Line
	8500 11600 8500 11650
$Comp
L Connector_Generic:Conn_01x01 J2
U 1 1 5D4F9702
P 6750 2400
F 0 "J2" H 6670 2175 50  0000 C CNN
F 1 "Vo_inv" H 6670 2266 50  0000 C CNN
F 2 "Connector_PinHeader_2.54mm:PinHeader_1x01_P2.54mm_Vertical" H 6750 2400 50  0001 C CNN
F 3 "~" H 6750 2400 50  0001 C CNN
	1    6750 2400
	0    -1   -1   0   
$EndComp
Wire Wire Line
	6750 2600 6750 2900
Connection ~ 6750 2900
Wire Wire Line
	6750 2900 6950 2900
$Comp
L Connector_Generic:Conn_01x01 J16
U 1 1 5D547025
P 1400 10400
F 0 "J16" H 1320 10175 50  0000 C CNN
F 1 "V_comp" H 1320 10266 50  0000 C CNN
F 2 "Connector_PinHeader_2.54mm:PinHeader_1x01_P2.54mm_Vertical" H 1400 10400 50  0001 C CNN
F 3 "~" H 1400 10400 50  0001 C CNN
	1    1400 10400
	0    -1   -1   0   
$EndComp
Wire Wire Line
	1400 10600 1400 11000
Connection ~ 1400 11000
Wire Wire Line
	1400 11000 1500 11000
$Comp
L Connector_Generic:Conn_01x01 J17
U 1 1 5D48F8A9
P 8750 10900
F 0 "J17" H 8670 10675 50  0000 C CNN
F 1 "GND" H 8670 10766 50  0000 C CNN
F 2 "Connector_PinHeader_2.54mm:PinHeader_1x01_P2.54mm_Vertical" H 8750 10900 50  0001 C CNN
F 3 "~" H 8750 10900 50  0001 C CNN
	1    8750 10900
	-1   0    0    1   
$EndComp
$Comp
L power:GND #PWR0150
U 1 1 5D48F8B0
P 9050 10950
F 0 "#PWR0150" H 9050 10700 50  0001 C CNN
F 1 "GND" H 9055 10777 50  0000 C CNN
F 2 "" H 9050 10950 50  0001 C CNN
F 3 "" H 9050 10950 50  0001 C CNN
	1    9050 10950
	1    0    0    -1  
$EndComp
Wire Wire Line
	8950 10900 9050 10900
Wire Wire Line
	9050 10900 9050 10950
Wire Notes Line
	700  13450 7650 13450
Wire Notes Line
	7650 13450 7650 9500
Wire Notes Line
	7650 9500 700  9500
Wire Notes Line
	700  9500 700  13450
Connection ~ 5000 7150
Text Notes 950  4600 0    63   ~ 0
Fonte de corrente controlada por tensão
Wire Notes Line
	650  4000 9250 4000
Wire Notes Line
	9250 4000 9250 9450
Wire Notes Line
	9250 9450 650  9450
Wire Notes Line
	650  9450 650  4000
Wire Notes Line
	650  600  9250 600 
Wire Notes Line
	9250 600  9250 3900
Wire Notes Line
	9250 3900 650  3900
Wire Notes Line
	650  3900 650  600 
Text Notes 7750 9700 0    91   ~ 0
Alimentação externa
Wire Notes Line
	7700 9500 9250 9500
Wire Notes Line
	9250 9500 9250 13450
Wire Notes Line
	9250 13450 7700 13450
Wire Notes Line
	7700 13450 7700 9500
$EndSCHEMATC
